[{"id":1,"fecha":"2017-11-22","importe":55.09,"latitud":-7.4250762,"longitud":108.2822389,"ciudad":"Cinunjang"},
{"id":2,"fecha":"2017-01-15","importe":20.17,"latitud":19.241239,"longitud":108.758458,"ciudad":"Sanjia"},
{"id":3,"fecha":"2017-03-10","importe":70.62,"latitud":42.3416847,"longitud":69.590101,"ciudad":"Shymkent"},
{"id":4,"fecha":"2017-10-23","importe":21.94,"latitud":36.145932,"longitud":113.01869,"ciudad":"Gaohe"},
{"id":5,"fecha":"2017-11-16","importe":5.65,"latitud":22.99732,"longitud":113.87497,"ciudad":"Liaobu"},
{"id":6,"fecha":"2017-12-17","importe":6.38,"latitud":9.3507596,"longitud":-65.3261218,"ciudad":"Zaraza"},
{"id":7,"fecha":"2017-01-29","importe":63.57,"latitud":18.2505167,"longitud":103.4910621,"ciudad":"Si Wilai"},
{"id":8,"fecha":"2017-11-22","importe":24.13,"latitud":10.7497,"longitud":122.616,"ciudad":"Bolilao"},
{"id":9,"fecha":"2017-09-09","importe":4.54,"latitud":37.365238,"longitud":120.44763,"ciudad":"Linglong"},
{"id":10,"fecha":"2017-05-26","importe":56.64,"latitud":20.3231704,"longitud":106.0140586,"ciudad":"Thị Trấn Lâm"},
{"id":11,"fecha":"2017-10-21","importe":15.66,"latitud":5.5249526,"longitud":7.4922407,"ciudad":"Umuahia"},
{"id":12,"fecha":"2017-03-30","importe":16.51,"latitud":39.8647755,"longitud":-8.9052753,"ciudad":"Boco"},
{"id":13,"fecha":"2017-12-23","importe":95.05,"latitud":-6.308009,"longitud":155.477221,"ciudad":"Panguna"},
{"id":14,"fecha":"2017-11-20","importe":77.88,"latitud":49.9321242,"longitud":17.8000468,"ciudad":"Stěbořice"},
{"id":15,"fecha":"2017-05-31","importe":14.44,"latitud":-31.48342,"longitud":19.7582,"ciudad":"Calvinia"},
{"id":16,"fecha":"2017-01-20","importe":11.59,"latitud":-11.7806236,"longitud":-75.4869033,"ciudad":"Jauja"},
{"id":17,"fecha":"2017-01-18","importe":54.26,"latitud":41.139883,"longitud":22.5397872,"ciudad":"Gevgelija"},
{"id":18,"fecha":"2017-09-09","importe":12.32,"latitud":54.6410525,"longitud":22.7575987,"ciudad":"Kybartai"},
{"id":19,"fecha":"2017-04-14","importe":77.72,"latitud":27.3675011,"longitud":68.1006359,"ciudad":"Dokri"},
{"id":20,"fecha":"2017-11-02","importe":16.44,"latitud":24.9104797,"longitud":69.3504869,"ciudad":"Jahāniān Shāh"},
{"id":21,"fecha":"2017-11-17","importe":89.13,"latitud":30.830898,"longitud":120.92585,"ciudad":"Jiaoshanhe"},
{"id":22,"fecha":"2017-11-22","importe":51.69,"latitud":40.6073164,"longitud":46.7807131,"ciudad":"Goranboy"},
{"id":23,"fecha":"2017-11-05","importe":35.9,"latitud":53.2774963,"longitud":-6.1157412,"ciudad":"Dunlewy"},
{"id":24,"fecha":"2017-08-20","importe":88.92,"latitud":47.1284352,"longitud":42.4543661,"ciudad":"Zimovniki"},
{"id":25,"fecha":"2017-12-19","importe":14.64,"latitud":41.0743876,"longitud":-8.5242992,"ciudad":"Arnelas"},
{"id":26,"fecha":"2017-02-04","importe":59.6,"latitud":"15.43333","longitud":"-91.63333","ciudad":"San Juan Atitán"},
{"id":27,"fecha":"2017-04-05","importe":68.88,"latitud":19.4458447,"longitud":-99.1497664,"ciudad":"Buenavista"},
{"id":28,"fecha":"2017-11-01","importe":39.82,"latitud":43.7441795,"longitud":2.511999,"ciudad":"Marseille"},
{"id":29,"fecha":"2017-09-06","importe":2.26,"latitud":37.106326,"longitud":-8.4723108,"ciudad":"Vila Nova"},
{"id":30,"fecha":"2017-07-19","importe":39.76,"latitud":-7.2949141,"longitud":107.8021158,"ciudad":"Tambakbaya"},
{"id":31,"fecha":"2017-10-09","importe":72.9,"latitud":53.7925065,"longitud":-113.6463436,"ciudad":"Morinville"},
{"id":32,"fecha":"2017-05-14","importe":67.51,"latitud":-23.1770971,"longitud":-49.3838782,"ciudad":"Piraju"},
{"id":33,"fecha":"2017-11-24","importe":53.83,"latitud":-7.15232,"longitud":112.90936,"ciudad":"Duwakbuter"},
{"id":34,"fecha":"2017-03-27","importe":88.69,"latitud":24.781681,"longitud":118.552365,"ciudad":"Jinjiang"},
{"id":35,"fecha":"2017-12-17","importe":13.0,"latitud":45.6829132,"longitud":13.9697218,"ciudad":"Divača"},
{"id":36,"fecha":"2017-11-18","importe":80.96,"latitud":-8.5309777,"longitud":-37.1239897,"ciudad":"Buíque"},
{"id":37,"fecha":"2017-05-03","importe":44.94,"latitud":36.1592882,"longitud":-95.9964783,"ciudad":"Tulsa"},
{"id":38,"fecha":"2017-01-27","importe":66.11,"latitud":4.917531,"longitud":-74.024773,"ciudad":"Cajicá"},
{"id":39,"fecha":"2017-11-05","importe":11.29,"latitud":31.16899,"longitud":121.424679,"ciudad":"Jindui"},
{"id":40,"fecha":"2017-05-27","importe":67.31,"latitud":31.2724505,"longitud":30.7807444,"ciudad":"Sīdī Sālim"},
{"id":41,"fecha":"2017-03-25","importe":99.35,"latitud":52.5595501,"longitud":23.8049715,"ciudad":"Kamyanyuki"},
{"id":42,"fecha":"2017-11-09","importe":15.22,"latitud":62.1738098,"longitud":29.2055142,"ciudad":"Savonranta"},
{"id":43,"fecha":"2017-08-06","importe":67.83,"latitud":22.521523,"longitud":114.055023,"ciudad":"Futian"},
{"id":44,"fecha":"2017-07-15","importe":67.99,"latitud":56.2341823,"longitud":-117.2893839,"ciudad":"Peace River"},
{"id":45,"fecha":"2017-05-23","importe":13.03,"latitud":-2.569886,"longitud":140.50321,"ciudad":"Sentani"},
{"id":46,"fecha":"2017-09-13","importe":71.9,"latitud":22.788341,"longitud":113.152357,"ciudad":"Xingtan"},
{"id":47,"fecha":"2017-11-27","importe":36.15,"latitud":14.5634196,"longitud":121.0307955,"ciudad":"Mercedes"},
{"id":48,"fecha":"2017-11-28","importe":44.82,"latitud":48.7277622,"longitud":100.7724281,"ciudad":"Jargalant"},
{"id":49,"fecha":"2017-02-07","importe":21.15,"latitud":48.689836,"longitud":6.17445,"ciudad":"Nancy"},
{"id":50,"fecha":"2017-12-01","importe":78.65,"latitud":37.6854422,"longitud":48.3412639,"ciudad":"Gīvī"},
{"id":51,"fecha":"2017-09-15","importe":76.54,"latitud":40.3984011,"longitud":-8.7050402,"ciudad":"Lentisqueira"},
{"id":52,"fecha":"2017-01-26","importe":1.54,"latitud":-8.1468836,"longitud":-78.1721189,"ciudad":"Santiago de Chuco"},
{"id":53,"fecha":"2017-04-22","importe":35.8,"latitud":-8.6512212,"longitud":115.1622363,"ciudad":"Karobokan"},
{"id":54,"fecha":"2017-04-18","importe":64.44,"latitud":41.0490009,"longitud":39.513623,"ciudad":"Yeniköy"},
{"id":55,"fecha":"2017-11-18","importe":41.37,"latitud":50.6655892,"longitud":18.9277567,"ciudad":"Boronów"},
{"id":56,"fecha":"2017-04-23","importe":21.79,"latitud":13.513211,"longitud":122.469352,"ciudad":"Cambuga"},
{"id":57,"fecha":"2017-01-29","importe":53.97,"latitud":8.508983,"longitud":125.969667,"ciudad":"San Francisco"},
{"id":58,"fecha":"2017-12-15","importe":60.39,"latitud":-24.068741,"longitud":-46.6512239,"ciudad":"Mongaguá"},
{"id":59,"fecha":"2017-07-12","importe":64.19,"latitud":28.233802,"longitud":103.640693,"ciudad":"Xiluodu"},
{"id":60,"fecha":"2018-01-05","importe":5.37,"latitud":29.72277,"longitud":106.53519,"ciudad":"Yuelai"},
{"id":61,"fecha":"2017-08-11","importe":18.32,"latitud":45.7089869,"longitud":34.3874785,"ciudad":"Dzhankoy"},
{"id":62,"fecha":"2017-05-12","importe":73.9,"latitud":29.1374566,"longitud":-80.9980687,"ciudad":"Daytona Beach"},
{"id":63,"fecha":"2017-12-15","importe":49.84,"latitud":-7.355927,"longitud":110.6422198,"ciudad":"Kebonan"},
{"id":64,"fecha":"2017-11-02","importe":8.5,"latitud":7.3750631,"longitud":-6.4769877,"ciudad":"Vavoua"},
{"id":65,"fecha":"2017-03-16","importe":88.83,"latitud":40.7143433,"longitud":-8.0108755,"ciudad":"Silgueiros"},
{"id":66,"fecha":"2017-07-13","importe":3.97,"latitud":-5.0986263,"longitud":-42.8245916,"ciudad":"Timon"},
{"id":67,"fecha":"2017-02-09","importe":80.0,"latitud":-14.9479605,"longitud":-70.8796276,"ciudad":"Llalli"},
{"id":68,"fecha":"2017-09-15","importe":8.61,"latitud":39.7654612,"longitud":-8.6206402,"ciudad":"Chã"},
{"id":69,"fecha":"2017-04-06","importe":38.52,"latitud":6.8873531,"longitud":73.113569,"ciudad":"Dhidhdhoo"},
{"id":70,"fecha":"2017-02-06","importe":16.08,"latitud":"42.88719","longitud":"120.67466","ciudad":"Daqin Tal"},
{"id":71,"fecha":"2017-08-23","importe":27.51,"latitud":29.4528,"longitud":119.89225,"ciudad":"Pujiang"},
{"id":72,"fecha":"2017-07-24","importe":25.36,"latitud":37.8978165,"longitud":21.3138403,"ciudad":"Traganón"},
{"id":73,"fecha":"2017-08-12","importe":69.27,"latitud":52.8416063,"longitud":53.4831411,"ciudad":"Pleshanovo"},
{"id":74,"fecha":"2017-12-13","importe":36.05,"latitud":-0.789275,"longitud":113.921327,"ciudad":"Were"},
{"id":75,"fecha":"2017-12-29","importe":11.59,"latitud":53.8298337,"longitud":20.275033,"ciudad":"Jonkowo"},
{"id":76,"fecha":"2018-01-03","importe":54.61,"latitud":40.1315199,"longitud":68.4829804,"ciudad":"Dashtobod"},
{"id":77,"fecha":"2017-12-18","importe":38.08,"latitud":30.679359,"longitud":104.011664,"ciudad":"Jinsha"},
{"id":78,"fecha":"2017-02-13","importe":42.3,"latitud":-11.5576676,"longitud":-39.2791011,"ciudad":"Conceição do Coité"},
{"id":79,"fecha":"2017-11-12","importe":37.14,"latitud":28.80901,"longitud":120.26121,"ciudad":"Huzhen"},
{"id":80,"fecha":"2017-10-18","importe":50.88,"latitud":-7.1143481,"longitud":-78.8226909,"ciudad":"San Pablo"},
{"id":81,"fecha":"2017-08-31","importe":85.61,"latitud":44.9981985,"longitud":39.1148294,"ciudad":"Adygeysk"},
{"id":82,"fecha":"2018-01-03","importe":96.21,"latitud":49.2546841,"longitud":15.924147,"ciudad":"Trnava"},
{"id":83,"fecha":"2017-11-09","importe":49.99,"latitud":27.135999,"longitud":111.106104,"ciudad":"Yushanpu"},
{"id":84,"fecha":"2017-01-19","importe":93.05,"latitud":37.8509191,"longitud":21.2543651,"ciudad":"Gastoúni"},
{"id":85,"fecha":"2017-02-14","importe":7.47,"latitud":50.4233463,"longitud":80.250811,"ciudad":"Semey"},
{"id":86,"fecha":"2017-06-22","importe":12.79,"latitud":14.5001422,"longitud":121.0394028,"ciudad":"Sampaloc"},
{"id":87,"fecha":"2017-09-10","importe":7.09,"latitud":44.8119628,"longitud":15.8685645,"ciudad":"Bihać"},
{"id":88,"fecha":"2017-09-16","importe":81.4,"latitud":-10.5732996,"longitud":-38.4429274,"ciudad":"Cícero Dantas"},
{"id":89,"fecha":"2017-05-05","importe":9.98,"latitud":40.180793,"longitud":44.5281754,"ciudad":"Armenia"},
{"id":90,"fecha":"2017-11-10","importe":51.74,"latitud":37.0364358,"longitud":45.0971372,"ciudad":"Oshnavīyeh"},
{"id":91,"fecha":"2017-01-29","importe":92.65,"latitud":31.9212574,"longitud":120.9281733,"ciudad":"Xufu"},
{"id":92,"fecha":"2017-11-12","importe":14.38,"latitud":10.4868673,"longitud":-66.739712,"ciudad":"Caucaguita"},
{"id":93,"fecha":"2017-08-16","importe":94.16,"latitud":58.960787,"longitud":5.7326598,"ciudad":"Hafrsfjord"},
{"id":94,"fecha":"2017-06-01","importe":94.65,"latitud":22.3140531,"longitud":-97.8850861,"ciudad":"Magdaleno Aguilar"},
{"id":95,"fecha":"2017-05-24","importe":86.47,"latitud":52.958936,"longitud":21.8130562,"ciudad":"Czerwin"},
{"id":96,"fecha":"2017-10-08","importe":47.51,"latitud":48.3009689,"longitud":-1.2836594,"ciudad":"Marmande"},
{"id":97,"fecha":"2017-04-29","importe":66.81,"latitud":25.917098,"longitud":69.104948,"ciudad":"Samaro"},
{"id":98,"fecha":"2017-09-27","importe":97.1,"latitud":13.513211,"longitud":122.469352,"ciudad":"Cambuga"},
{"id":99,"fecha":"2017-01-19","importe":92.29,"latitud":38.627867,"longitud":114.506303,"ciudad":"Beihe"},
{"id":100,"fecha":"2017-09-09","importe":61.49,"latitud":34.82828,"longitud":135.6292708,"ciudad":"Zushi"}]